% time	cellId	IMSI	RNTI	sinrLinear
0.039	1	4	39	323
0.04	1	16	40	220.306
0.041	1	26	41	201.395
0.045	1	20	45	281.05
0.046	1	5	46	279.304
0.047	1	11	47	354.19
0.048	1	15	48	336.543
0.055	1	25	55	272.248
0.056	1	7	56	219.867
0.057	1	23	57	303.651
0.058	1	2	58	344.247
0.063	1	14	63	287.391
0.064	1	12	64	252.215
0.065	1	27	65	221.275
0.066	1	10	66	202.034
0.069	1	17	69	275.067
0.07	1	22	70	222.338
0.321	1	30	1	322.41
0.322	1	3	2	272.733
0.323	1	21	3	307.137
0.324	1	1	4	299.726
0.335	1	19	15	196.638
0.336	1	6	16	304.208
0.337	1	29	17	285.636
0.338	1	24	18	277.096
0.346	1	9	26	296.73
0.347	1	28	27	310.031
0.348	1	18	28	228.445
0.349	1	13	29	276.265
0.358	1	8	38	483.323
0.359	1	4	39	313.373
0.36	1	16	40	220.239
0.361	1	26	41	201.548
0.365	1	20	45	277.497
0.366	1	5	46	277.777
0.367	1	11	47	351.645
0.368	1	15	48	329.009
0.375	1	25	55	273.815
0.376	1	7	56	219.268
0.377	1	23	57	299.033
0.378	1	2	58	336.06
0.383	1	14	63	291.144
0.384	1	12	64	252.78
0.385	1	27	65	222.586
0.386	1	10	66	204.548
0.389	1	17	69	275.583
0.39	1	22	70	222.62
0.641	1	30	1	325.915
0.642	1	3	2	271.866
0.643	1	21	3	302.199
0.644	1	1	4	298.52
0.655	1	19	15	197.308
0.656	1	6	16	297.43
0.657	1	29	17	296.531
0.658	1	24	18	272.193
0.666	1	9	26	302.43
0.667	1	28	27	311.947
0.668	1	18	28	233.437
0.669	1	13	29	275.745
0.678	1	8	38	482.365
0.679	1	4	39	316.047
0.68	1	16	40	224.103
0.681	1	26	41	196.03
0.685	1	20	45	279.938
0.686	1	5	46	275.441
0.687	1	11	47	359.067
0.688	1	15	48	320.717
0.695	1	25	55	276.483
0.696	1	7	56	218.078
0.697	1	23	57	306.894
0.698	1	2	58	349.441
0.703	1	14	63	281.105
0.704	1	12	64	248.859
0.705	1	27	65	217.018
0.706	1	10	66	207.252
0.709	1	17	69	272.804
0.71	1	22	70	229.416
0.961	1	30	1	318.006
0.962	1	3	2	268.411
0.963	1	21	3	302.741
0.964	1	1	4	298.792
0.975	1	19	15	199.291
0.976	1	6	16	300.481
0.977	1	29	17	297.592
0.978	1	24	18	273.239
0.986	1	9	26	302.049
0.987	1	28	27	312.675
0.988	1	18	28	235.168
0.989	1	13	29	274.707
0.998	1	8	38	487.515
0.999	1	4	39	315.018
1	1	16	40	223.767
1.001	1	26	41	198.811
1.005	1	20	45	282.979
1.006	1	5	46	271.654
1.007	1	11	47	369.808
1.008	1	15	48	323.005
1.015	1	25	55	275.155
1.016	1	7	56	216.839
1.017	1	23	57	305.493
1.018	1	2	58	348.75
1.023	1	14	63	281.57
1.024	1	12	64	253.582
1.025	1	27	65	216.403
1.026	1	10	66	206.409
1.029	1	17	69	270.524
1.03	1	22	70	232.787
1.281	1	30	1	304.616
1.282	1	3	2	265.279
1.283	1	21	3	300.821
1.284	1	1	4	301.387
1.295	1	19	15	196.161
1.296	1	6	16	292.51
1.297	1	29	17	295.444
1.298	1	24	18	272.551
1.306	1	9	26	303.707
1.307	1	28	27	310.29
1.308	1	18	28	234.79
1.309	1	13	29	277.858
1.318	1	8	38	479.112
1.319	1	4	39	320.571
1.32	1	16	40	221.406
1.321	1	26	41	197.659
1.325	1	20	45	279.699
1.326	1	5	46	267.706
1.327	1	11	47	371.679
1.328	1	15	48	330.371
1.335	1	25	55	271.303
1.336	1	7	56	216.57
1.337	1	23	57	304.158
1.338	1	2	58	348.185
1.343	1	14	63	282.374
1.344	1	12	64	256.346
1.345	1	27	65	214.858
1.346	1	10	66	208.626
1.349	1	17	69	269.848
1.35	1	22	70	231.839
1.601	1	30	1	308.684
1.602	1	3	2	260.693
1.603	1	21	3	305.871
1.604	1	1	4	297.911
1.615	1	19	15	195.069
1.616	1	6	16	290.447
1.617	1	29	17	291.967
1.618	1	24	18	278.229
1.626	1	9	26	312.095
1.627	1	28	27	305.893
1.628	1	18	28	236.661
1.629	1	13	29	280.833
1.638	1	8	38	460.496
1.639	1	4	39	320.422
1.64	1	16	40	222.507
1.641	1	26	41	194.799
1.645	1	20	45	277.944
1.646	1	5	46	267.547
1.647	1	11	47	370.768
1.648	1	15	48	342.082
1.655	1	25	55	272.85
1.656	1	7	56	217.833
1.657	1	23	57	304.698
1.658	1	2	58	360.947
1.663	1	14	63	279.901
1.664	1	12	64	256.917
1.665	1	27	65	215.494
1.666	1	10	66	201.867
1.669	1	17	69	271.041
1.67	1	22	70	234.092
1.921	1	30	1	313.052
1.922	1	3	2	264.421
1.923	1	21	3	306.241
1.924	1	1	4	298.065
1.935	1	19	15	195.678
1.936	1	6	16	294.93
1.937	1	29	17	288.121
1.938	1	24	18	272.365
1.946	1	9	26	314.069
1.947	1	28	27	298.349
1.948	1	18	28	238.595
1.949	1	13	29	286.012
1.958	1	8	38	453.22
1.959	1	4	39	316.162
1.96	1	16	40	225.363
1.961	1	26	41	195.03
1.965	1	20	45	271.003
1.966	1	5	46	269.165
1.967	1	11	47	373.604
1.968	1	15	48	338.618
1.975	1	25	55	270.021
1.976	1	7	56	215.864
1.977	1	23	57	304.717
1.978	1	2	58	363.24
1.983	1	14	63	279.799
1.984	1	12	64	258.905
1.985	1	27	65	213.903
1.986	1	10	66	201.599
1.989	1	17	69	269.364
1.99	1	22	70	227.511
2.241	1	30	1	312.615
2.242	1	3	2	266.62
2.243	1	21	3	302.222
2.244	1	1	4	296.521
2.255	1	19	15	200.526
2.256	1	6	16	294.768
2.257	1	29	17	292.391
2.258	1	24	18	277.246
2.266	1	9	26	314.361
2.267	1	28	27	297.107
2.268	1	18	28	235.341
2.269	1	13	29	291.332
2.278	1	8	38	462.879
2.279	1	4	39	326.367
2.28	1	16	40	226.124
2.281	1	26	41	198.044
2.285	1	20	45	272.961
2.286	1	5	46	271.929
2.287	1	11	47	381.248
2.288	1	15	48	341.866
2.295	1	25	55	273.011
2.296	1	7	56	212.953
2.297	1	23	57	305.653
2.298	1	2	58	359.269
2.303	1	14	63	284.757
2.304	1	12	64	252.35
2.305	1	27	65	212.572
2.306	1	10	66	199.039
2.309	1	17	69	272.118
2.31	1	22	70	227.11
2.561	1	30	1	324.999
2.562	1	3	2	265.016
2.563	1	21	3	304.49
2.564	1	1	4	296.084
2.575	1	19	15	198.157
2.576	1	6	16	302.634
2.577	1	29	17	290.62
2.578	1	24	18	275.128
2.586	1	9	26	320.288
2.587	1	28	27	295.515
2.588	1	18	28	235.872
2.589	1	13	29	292.352
2.598	1	8	38	468.946
2.599	1	4	39	316.422
2.6	1	16	40	222.819
2.601	1	26	41	200.001
2.605	1	20	45	272.488
2.606	1	5	46	274.705
2.607	1	11	47	388.358
2.608	1	15	48	342.975
2.615	1	25	55	262.46
2.616	1	7	56	211.405
2.617	1	23	57	309.53
2.618	1	2	58	360.563
2.623	1	14	63	281.904
2.624	1	12	64	253.146
2.625	1	27	65	215.336
2.626	1	10	66	198.523
2.629	1	17	69	273.503
2.63	1	22	70	231.775
2.881	1	30	1	322.668
2.882	1	3	2	263.025
2.883	1	21	3	299.761
2.884	1	1	4	301.031
2.895	1	19	15	198.713
2.896	1	6	16	306.602
2.897	1	29	17	284.163
2.898	1	24	18	266.555
2.906	1	9	26	322.936
2.907	1	28	27	290.296
2.908	1	18	28	236.511
2.909	1	13	29	290.427
2.918	1	8	38	461.016
2.919	1	4	39	311.949
2.92	1	16	40	217.346
2.921	1	26	41	200.586
2.925	1	20	45	276.396
2.926	1	5	46	272.401
2.927	1	11	47	378.662
2.928	1	15	48	342.408
2.935	1	25	55	259.02
2.936	1	7	56	213.515
2.937	1	23	57	300.642
2.938	1	2	58	364.895
2.943	1	14	63	279.755
2.944	1	12	64	251.299
2.945	1	27	65	216.857
2.946	1	10	66	196.354
2.949	1	17	69	269.435
2.95	1	22	70	233.077
3.201	1	30	1	325.496
3.202	1	3	2	268.767
3.203	1	21	3	301.166
3.204	1	1	4	306.123
3.215	1	19	15	201.954
3.216	1	6	16	312.034
3.217	1	29	17	286.637
3.218	1	24	18	260.787
3.226	1	9	26	328.783
3.227	1	28	27	281.764
3.228	1	18	28	233.905
3.229	1	13	29	292.256
3.238	1	8	38	466.054
3.239	1	4	39	306.875
3.24	1	16	40	216.439
3.241	1	26	41	196.064
3.245	1	20	45	282.346
3.246	1	5	46	265.342
3.247	1	11	47	384.059
3.248	1	15	48	333.99
3.255	1	25	55	259.21
3.256	1	7	56	214.818
3.257	1	23	57	297.084
3.258	1	2	58	355.895
3.263	1	14	63	268.988
3.264	1	12	64	252.297
3.265	1	27	65	217.787
3.266	1	10	66	194.041
3.269	1	17	69	273.639
3.27	1	22	70	232.823
3.521	1	30	1	328.407
3.522	1	3	2	267.058
3.523	1	21	3	310.185
3.524	1	1	4	300.655
3.535	1	19	15	203.983
3.536	1	6	16	311.164
3.537	1	29	17	280.126
3.538	1	24	18	264.872
3.546	1	9	26	323.088
3.547	1	28	27	278.255
3.548	1	18	28	229.669
3.549	1	13	29	285.818
3.558	1	8	38	458.564
3.559	1	4	39	304.276
3.56	1	16	40	213.102
3.561	1	26	41	195.412
3.565	1	20	45	286.117
3.566	1	5	46	267.269
3.567	1	11	47	380.734
3.568	1	15	48	340.092
3.575	1	25	55	253.598
3.576	1	7	56	215.12
3.577	1	23	57	298.259
3.578	1	2	58	359.662
3.583	1	14	63	273.128
3.584	1	12	64	254.286
3.585	1	27	65	216.366
3.586	1	10	66	193.83
3.589	1	17	69	274.316
3.59	1	22	70	234.961
3.841	1	30	1	334.425
3.842	1	3	2	270.585
3.843	1	21	3	317.682
3.844	1	1	4	299.839
3.855	1	19	15	204.531
3.856	1	6	16	321.256
3.857	1	29	17	281.532
3.858	1	24	18	253.874
3.866	1	9	26	321.702
3.867	1	28	27	276.058
3.868	1	18	28	230.104
3.869	1	13	29	291.14
3.878	1	8	38	459.677
3.879	1	4	39	309.121
3.88	1	16	40	220.797
3.881	1	26	41	196.261
3.885	1	20	45	289.117
3.886	1	5	46	271.164
3.887	1	11	47	374.457
3.888	1	15	48	333.046
3.895	1	25	55	254.884
3.896	1	7	56	222.828
3.897	1	23	57	298.656
3.898	1	2	58	355.573
3.903	1	14	63	278.353
3.904	1	12	64	252.995
3.905	1	27	65	214.611
3.906	1	10	66	191.949
3.909	1	17	69	269.542
3.91	1	22	70	235.134
4.161	1	30	1	336.678
4.162	1	3	2	271.864
4.163	1	21	3	319.906
4.164	1	1	4	296.052
4.175	1	19	15	202.445
4.176	1	6	16	318.998
4.177	1	29	17	284.631
4.178	1	24	18	260.045
4.186	1	9	26	327.55
4.187	1	28	27	274.5
4.188	1	18	28	229.785
4.189	1	13	29	289.098
4.198	1	8	38	464.489
4.199	1	4	39	312.666
4.2	1	16	40	218.802
4.201	1	26	41	197.877
4.205	1	20	45	293.397
4.206	1	5	46	275.705
4.207	1	11	47	378.288
4.208	1	15	48	345.215
4.215	1	25	55	257.699
4.216	1	7	56	223.932
4.217	1	23	57	292.129
4.218	1	2	58	344.482
4.223	1	14	63	280.646
4.224	1	12	64	257.649
4.225	1	27	65	212.498
4.226	1	10	66	188.985
4.229	1	17	69	271.091
4.23	1	22	70	237.821
4.481	1	30	1	342.617
4.482	1	3	2	268.185
4.483	1	21	3	324.586
4.484	1	1	4	292.096
4.495	1	19	15	207.477
4.496	1	6	16	319.746
4.497	1	29	17	276.308
4.498	1	24	18	255.613
4.506	1	9	26	333.392
4.507	1	28	27	274.637
4.508	1	18	28	234.058
4.509	1	13	29	291.97
4.518	1	8	38	477.23
4.519	1	4	39	315.157
4.52	1	16	40	218.698
4.521	1	26	41	195.008
4.525	1	20	45	292.407
4.526	1	5	46	275.577
4.527	1	11	47	391.443
4.528	1	15	48	336.545
4.535	1	25	55	255.617
4.536	1	7	56	226.102
4.537	1	23	57	290.943
4.538	1	2	58	339.12
4.543	1	14	63	281.115
4.544	1	12	64	257.08
4.545	1	27	65	213.316
4.546	1	10	66	191.182
4.549	1	17	69	269.664
4.55	1	22	70	238.599
4.801	1	30	1	352.594
4.802	1	3	2	267.406
4.803	1	21	3	322.401
4.804	1	1	4	287.193
4.815	1	19	15	206.315
4.816	1	6	16	313.966
4.817	1	29	17	281.268
4.818	1	24	18	254.294
4.826	1	9	26	343.241
4.827	1	28	27	272.867
4.828	1	18	28	237.966
4.829	1	13	29	292.262
4.838	1	8	38	475.372
4.839	1	4	39	319.496
4.84	1	16	40	219.319
4.841	1	26	41	197.569
4.845	1	20	45	302.863
4.846	1	5	46	279.685
4.847	1	11	47	392.569
4.848	1	15	48	327.634
4.855	1	25	55	257.267
4.856	1	7	56	225.617
4.857	1	23	57	291.466
4.858	1	2	58	336.478
4.863	1	14	63	278.31
4.864	1	12	64	258.993
4.865	1	27	65	216.809
4.866	1	10	66	185.836
4.869	1	17	69	263.81
4.87	1	22	70	240.456
5.121	1	30	1	350.24
5.122	1	3	2	272.154
5.123	1	21	3	329.19
5.124	1	1	4	286.747
5.135	1	19	15	207.329
5.136	1	6	16	316.724
5.137	1	29	17	279.813
5.138	1	24	18	254.264
5.146	1	9	26	352.548
5.147	1	28	27	278.14
5.148	1	18	28	235.453
5.149	1	13	29	295.112
5.158	1	8	38	481.659
5.159	1	4	39	315.506
5.16	1	16	40	221.855
5.161	1	26	41	199.728
5.165	1	20	45	308.922
5.166	1	5	46	278.18
5.167	1	11	47	388.32
5.168	1	15	48	329.275
5.175	1	25	55	256.323
5.176	1	7	56	228.116
5.177	1	23	57	287.142
5.178	1	2	58	340.583
5.183	1	14	63	281.416
5.184	1	12	64	255.194
5.185	1	27	65	214.938
5.186	1	10	66	181.035
5.189	1	17	69	266.915
5.19	1	22	70	240.662
5.441	1	30	1	351.151
5.442	1	3	2	275.202
5.443	1	21	3	327.097
5.444	1	1	4	277.771
5.455	1	19	15	205.374
5.456	1	6	16	320.406
5.457	1	29	17	273.647
5.458	1	24	18	256.327
5.466	1	9	26	356.341
5.467	1	28	27	275.363
5.468	1	18	28	240.563
5.469	1	13	29	297.363
5.478	1	8	38	467.576
5.479	1	4	39	320.696
5.48	1	16	40	218.677
5.481	1	26	41	195.81
5.485	1	20	45	306.259
5.486	1	5	46	276.926
5.487	1	11	47	387.155
5.488	1	15	48	326.738
5.495	1	25	55	251.266
5.496	1	7	56	228.914
5.497	1	23	57	289.653
5.498	1	2	58	343.82
5.503	1	14	63	275.897
5.504	1	12	64	258.596
5.505	1	27	65	211.439
5.506	1	10	66	181.479
5.509	1	17	69	271.926
5.51	1	22	70	238.616
5.761	1	30	1	346.022
5.762	1	3	2	274.27
5.763	1	21	3	332.271
5.764	1	1	4	282.539
5.775	1	19	15	204.486
5.776	1	6	16	313.361
5.777	1	29	17	272.343
5.778	1	24	18	256.191
5.786	1	9	26	356.304
5.787	1	28	27	278.237
5.788	1	18	28	239.035
5.789	1	13	29	296.4
5.798	1	8	38	466.066
5.799	1	4	39	323.218
5.8	1	16	40	218.913
5.801	1	26	41	196.512
5.805	1	20	45	300.014
5.806	1	5	46	277.307
5.807	1	11	47	381.233
5.808	1	15	48	325.339
5.815	1	25	55	255.11
5.816	1	7	56	226.18
5.817	1	23	57	296.616
5.818	1	2	58	345.526
5.823	1	14	63	271.481
5.824	1	12	64	260.763
5.825	1	27	65	213.412
5.826	1	10	66	181.801
5.829	1	17	69	275.048
5.83	1	22	70	242.77
6.081	1	30	1	343.43
6.082	1	3	2	278.894
6.083	1	21	3	332.89
6.084	1	1	4	278.735
6.095	1	19	15	209.153
6.096	1	6	16	317.26
6.097	1	29	17	280.214
6.098	1	24	18	256.06
6.106	1	9	26	361.006
6.107	1	28	27	276.693
6.108	1	18	28	234.315
6.109	1	13	29	296.823
6.118	1	8	38	472.473
6.119	1	4	39	327.309
6.12	1	16	40	216.813
6.121	1	26	41	194.873
6.125	1	20	45	303.415
6.126	1	5	46	277.822
6.127	1	11	47	372.687
6.128	1	15	48	326.415
6.135	1	25	55	260.477
6.136	1	7	56	225.001
6.137	1	23	57	294.562
6.138	1	2	58	341.419
6.143	1	14	63	275.582
6.144	1	12	64	261.685
6.145	1	27	65	212.435
6.146	1	10	66	184.011
6.149	1	17	69	274.034
6.15	1	22	70	244.136
6.401	1	30	1	343.388
6.402	1	3	2	282.148
6.403	1	21	3	331.04
6.404	1	1	4	275.426
6.415	1	19	15	206.823
6.416	1	6	16	319.243
6.417	1	29	17	288.122
6.418	1	24	18	257.672
6.426	1	9	26	358.441
6.427	1	28	27	274.617
6.428	1	18	28	231.92
6.429	1	13	29	297.73
6.438	1	8	38	473.241
6.439	1	4	39	333.558
6.44	1	16	40	218.746
6.441	1	26	41	193.576
6.445	1	20	45	303.74
6.446	1	5	46	278.244
6.447	1	11	47	371.748
6.448	1	15	48	326.276
6.455	1	25	55	258.13
6.456	1	7	56	225.745
6.457	1	23	57	285.186
6.458	1	2	58	336.632
6.463	1	14	63	274.804
6.464	1	12	64	261.313
6.465	1	27	65	212.046
6.466	1	10	66	183.116
6.469	1	17	69	272.188
6.47	1	22	70	240.494
6.721	1	30	1	352.248
6.722	1	3	2	282.261
6.723	1	21	3	330.714
6.724	1	1	4	283.708
6.735	1	19	15	203.886
6.736	1	6	16	320.811
6.737	1	29	17	286.008
6.738	1	24	18	258.638
6.746	1	9	26	363.4
6.747	1	28	27	272.321
6.748	1	18	28	234.095
6.749	1	13	29	296.507
6.758	1	8	38	473.091
6.759	1	4	39	332.029
6.76	1	16	40	215.637
6.761	1	26	41	191.528
6.765	1	20	45	305.709
6.766	1	5	46	276.425
6.767	1	11	47	369.527
6.768	1	15	48	322.885
6.775	1	25	55	259.546
6.776	1	7	56	229.982
6.777	1	23	57	288.285
6.778	1	2	58	324.445
6.783	1	14	63	280.402
6.784	1	12	64	261.665
6.785	1	27	65	215.701
6.786	1	10	66	181.844
6.789	1	17	69	275.916
6.79	1	22	70	238.036
7.041	1	30	1	358.446
7.042	1	3	2	282.308
7.043	1	21	3	332.772
7.044	1	1	4	286.696
7.055	1	19	15	204.819
7.056	1	6	16	323.464
7.057	1	29	17	286.335
7.058	1	24	18	257.19
7.066	1	9	26	368.846
7.067	1	28	27	270.301
7.068	1	18	28	231.622
7.069	1	13	29	290.402
7.078	1	8	38	471.438
7.079	1	4	39	340.103
7.08	1	16	40	219.008
7.081	1	26	41	192.249
7.085	1	20	45	304.585
7.086	1	5	46	272.933
7.087	1	11	47	370.751
7.088	1	15	48	324.004
7.095	1	25	55	259.998
7.096	1	7	56	228.611
7.097	1	23	57	286.112
7.098	1	2	58	326.428
7.103	1	14	63	278.813
7.104	1	12	64	263.035
7.105	1	27	65	217.17
7.106	1	10	66	180.435
7.109	1	17	69	275.002
7.11	1	22	70	238.887
7.361	1	30	1	357.526
7.362	1	3	2	275.866
7.363	1	21	3	321.552
7.364	1	1	4	286.663
7.375	1	19	15	203.689
7.376	1	6	16	323.198
7.377	1	29	17	292.562
7.378	1	24	18	256.483
7.386	1	9	26	361.664
7.387	1	28	27	268.31
7.388	1	18	28	235.815
7.389	1	13	29	285.752
7.398	1	8	38	482.751
7.399	1	4	39	347.405
7.4	1	16	40	221.351
7.401	1	26	41	188.393
7.405	1	20	45	299.668
7.406	1	5	46	271.889
7.407	1	11	47	370.98
7.408	1	15	48	323.095
7.415	1	25	55	259.702
7.416	1	7	56	230.437
7.417	1	23	57	281.739
7.418	1	2	58	321.122
7.423	1	14	63	274.827
7.424	1	12	64	263.788
7.425	1	27	65	216.658
7.426	1	10	66	181.891
7.429	1	17	69	278.554
7.43	1	22	70	239.033
7.681	1	30	1	350.006
7.682	1	3	2	273.682
7.683	1	21	3	318.182
7.684	1	1	4	286.403
7.695	1	19	15	203.267
7.696	1	6	16	314.028
7.697	1	29	17	285.65
7.698	1	24	18	260.479
7.706	1	9	26	356.235
7.707	1	28	27	269.058
7.708	1	18	28	234.053
7.709	1	13	29	284.353
7.718	1	8	38	493.388
7.719	1	4	39	350.041
7.72	1	16	40	222.405
7.721	1	26	41	191.739
7.725	1	20	45	297.581
7.726	1	5	46	273.506
7.727	1	11	47	367.232
7.728	1	15	48	324.481
7.735	1	25	55	266.076
7.736	1	7	56	228.441
7.737	1	23	57	286.339
7.738	1	2	58	321.175
7.743	1	14	63	277.446
7.744	1	12	64	273.383
7.745	1	27	65	219.759
7.746	1	10	66	181.855
7.749	1	17	69	271.551
7.75	1	22	70	239.598
8.001	1	30	1	343.167
8.002	1	3	2	276.021
8.003	1	21	3	307.224
8.004	1	1	4	288.152
8.015	1	19	15	200.039
8.016	1	6	16	317.479
8.017	1	29	17	281.294
8.018	1	24	18	253.072
8.026	1	9	26	358.67
8.027	1	28	27	267.204
8.028	1	18	28	239.675
8.029	1	13	29	282.84
8.038	1	8	38	487.041
8.039	1	4	39	358.494
8.04	1	16	40	226.577
8.041	1	26	41	191.951
8.045	1	20	45	290.781
8.046	1	5	46	272.006
8.047	1	11	47	367.102
8.048	1	15	48	329.775
8.055	1	25	55	260.242
8.056	1	7	56	224.844
8.057	1	23	57	287.756
8.058	1	2	58	321.808
8.063	1	14	63	276.166
8.064	1	12	64	269.148
8.065	1	27	65	218.833
8.066	1	10	66	180.302
8.069	1	17	69	276.613
8.07	1	22	70	236.344
8.321	1	30	1	344.651
8.322	1	3	2	278.48
8.323	1	21	3	306.298
8.324	1	1	4	288.69
8.335	1	19	15	204.449
8.336	1	6	16	322.107
8.337	1	29	17	280.936
8.338	1	24	18	250.003
8.346	1	9	26	352.511
8.347	1	28	27	266.692
8.348	1	18	28	236.484
8.349	1	13	29	282.464
8.358	1	8	38	468.802
8.359	1	4	39	363.268
8.36	1	16	40	222.673
8.361	1	26	41	191.51
8.365	1	20	45	288.754
8.366	1	5	46	270.622
8.367	1	11	47	370.289
8.368	1	15	48	332.187
8.375	1	25	55	257.752
8.376	1	7	56	224.997
8.377	1	23	57	281.63
8.378	1	2	58	317.618
8.383	1	14	63	269.53
8.384	1	12	64	263.965
8.385	1	27	65	219.191
8.386	1	10	66	183.448
8.389	1	17	69	275.457
8.39	1	22	70	242.215
8.641	1	30	1	346.777
8.642	1	3	2	273.815
8.643	1	21	3	311.586
8.644	1	1	4	289.666
8.655	1	19	15	201.526
8.656	1	6	16	315.012
8.657	1	29	17	285.462
8.658	1	24	18	245.078
8.666	1	9	26	345.086
8.667	1	28	27	267.821
8.668	1	18	28	237.99
8.669	1	13	29	279.367
8.678	1	8	38	470.51
8.679	1	4	39	370.371
8.68	1	16	40	222.021
8.681	1	26	41	189.579
8.685	1	20	45	285.689
8.686	1	5	46	266.736
8.687	1	11	47	369.365
8.688	1	15	48	332.1
8.695	1	25	55	263.468
8.696	1	7	56	229.954
8.697	1	23	57	281.075
8.698	1	2	58	317.31
8.703	1	14	63	268.606
8.704	1	12	64	263.646
8.705	1	27	65	218.607
8.706	1	10	66	184.914
8.709	1	17	69	279.863
8.71	1	22	70	244.309
8.961	1	30	1	347.77
8.962	1	3	2	277.474
8.963	1	21	3	306.193
8.964	1	1	4	297.918
8.975	1	19	15	200.215
8.976	1	6	16	317.693
8.977	1	29	17	290.014
8.978	1	24	18	246.209
8.986	1	9	26	334.851
8.987	1	28	27	268.145
8.988	1	18	28	235.756
8.989	1	13	29	281.004
8.998	1	8	38	468.418
8.999	1	4	39	369.46
9	1	16	40	225.257
9.001	1	26	41	193.217
9.005	1	20	45	296.453
9.006	1	5	46	264.95
9.007	1	11	47	359.683
9.008	1	15	48	332.639
9.015	1	25	55	268.103
9.016	1	7	56	234.4
9.017	1	23	57	272.611
9.018	1	2	58	316.577
9.023	1	14	63	270.153
9.024	1	12	64	265.008
9.025	1	27	65	216.608
9.026	1	10	66	182.065
9.029	1	17	69	278.912
9.03	1	22	70	245.471
9.281	1	30	1	357.42
9.282	1	3	2	271.332
9.283	1	21	3	309.389
9.284	1	1	4	301.74
9.295	1	19	15	200.836
9.296	1	6	16	315.111
9.297	1	29	17	284.813
9.298	1	24	18	247.938
9.306	1	9	26	326.567
9.307	1	28	27	273.082
9.308	1	18	28	235.428
9.309	1	13	29	285.237
9.318	1	8	38	465.819
9.319	1	4	39	359.088
9.32	1	16	40	228.38
9.321	1	26	41	197.48
9.325	1	20	45	299.682
9.326	1	5	46	266.703
9.327	1	11	47	362.534
9.328	1	15	48	325.724
9.335	1	25	55	275.054
9.336	1	7	56	237.703
9.337	1	23	57	276.823
9.338	1	2	58	321.138
9.343	1	14	63	271.704
9.344	1	12	64	263.866
9.345	1	27	65	215.288
9.346	1	10	66	184.701
9.349	1	17	69	281.11
9.35	1	22	70	247.18
9.601	1	30	1	367.67
9.602	1	3	2	275.703
9.603	1	21	3	303.885
9.604	1	1	4	300.185
9.615	1	19	15	204.85
9.616	1	6	16	324.392
9.617	1	29	17	286.657
9.618	1	24	18	254.736
9.626	1	9	26	319.586
9.627	1	28	27	268.921
9.628	1	18	28	234.516
9.629	1	13	29	278.037
9.638	1	8	38	469.126
9.639	1	4	39	355.428
9.64	1	16	40	220.769
9.641	1	26	41	196.797
9.645	1	20	45	299.522
9.646	1	5	46	267.291
9.647	1	11	47	361.788
9.648	1	15	48	325.381
9.655	1	25	55	279.346
9.656	1	7	56	238.815
9.657	1	23	57	271.354
9.658	1	2	58	322.028
9.663	1	14	63	271.475
9.664	1	12	64	266.573
9.665	1	27	65	217.793
9.666	1	10	66	187.283
9.669	1	17	69	286.545
9.67	1	22	70	252.956
9.921	1	30	1	373.011
9.922	1	3	2	273.806
9.923	1	21	3	304
9.924	1	1	4	304.214
9.935	1	19	15	206.606
9.936	1	6	16	325.241
9.937	1	29	17	290.251
9.938	1	24	18	258.4
9.946	1	9	26	320.403
9.947	1	28	27	266.585
9.948	1	18	28	233.067
9.949	1	13	29	275.248
9.958	1	8	38	465.112
9.959	1	4	39	364.433
9.96	1	16	40	223.177
9.961	1	26	41	195.787
9.965	1	20	45	305.323
9.966	1	5	46	270.374
9.967	1	11	47	353.409
9.968	1	15	48	320.92
9.975	1	25	55	281.873
9.976	1	7	56	241.611
9.977	1	23	57	270.28
9.978	1	2	58	320
9.983	1	14	63	271.86
9.984	1	12	64	269.811
9.985	1	27	65	217.575
9.986	1	10	66	186.671
9.989	1	17	69	288.239
9.99	1	22	70	254.502
10.241	1	30	1	379.783
10.242	1	3	2	273.805
10.243	1	21	3	298.887
10.244	1	1	4	307.286
10.255	1	19	15	208.85
10.256	1	6	16	321.05
10.257	1	29	17	282.979
10.258	1	24	18	254.627
10.266	1	9	26	321.562
10.267	1	28	27	262.476
10.268	1	18	28	231.371
10.269	1	13	29	273.846
10.278	1	8	38	479.577
10.279	1	4	39	361.07
10.28	1	16	40	221.611
10.281	1	26	41	193.146
10.285	1	20	45	307.598
10.286	1	5	46	266.626
10.287	1	11	47	362.656
10.288	1	15	48	321.397
10.295	1	25	55	277.589
10.296	1	7	56	246.353
10.297	1	23	57	266.523
10.298	1	2	58	330.493
10.303	1	14	63	263.736
10.304	1	12	64	267.349
10.305	1	27	65	218.643
10.306	1	10	66	184.597
10.309	1	17	69	289.993
10.31	1	22	70	258.229
10.561	1	30	1	389.324
10.562	1	3	2	274.325
10.563	1	21	3	294.285
10.564	1	1	4	305.451
10.575	1	19	15	210.245
10.576	1	6	16	313.416
10.577	1	29	17	286.748
10.578	1	24	18	252.116
10.586	1	9	26	323.842
10.587	1	28	27	270.115
10.588	1	18	28	232.465
10.589	1	13	29	274.723
10.598	1	8	38	476.954
10.599	1	4	39	356.57
10.6	1	16	40	223.694
10.601	1	26	41	193.384
10.605	1	20	45	309.881
10.606	1	5	46	266.743
10.607	1	11	47	360.884
10.608	1	15	48	325.335
10.615	1	25	55	284.669
10.616	1	7	56	248.233
10.617	1	23	57	266.337
10.618	1	2	58	329.631
10.623	1	14	63	262.442
10.624	1	12	64	270.065
10.625	1	27	65	214.416
10.626	1	10	66	184.183
10.629	1	17	69	292.218
10.63	1	22	70	260.272
10.881	1	30	1	390.437
10.882	1	3	2	276.863
10.883	1	21	3	295.85
10.884	1	1	4	304.95
10.895	1	19	15	208.126
10.896	1	6	16	311.469
10.897	1	29	17	283.452
10.898	1	24	18	251.095
10.906	1	9	26	325.431
10.907	1	28	27	269.267
10.908	1	18	28	233.423
10.909	1	13	29	267.788
10.918	1	8	38	480.031
10.919	1	4	39	363.598
10.92	1	16	40	225.753
10.921	1	26	41	192.119
10.925	1	20	45	310.11
10.926	1	5	46	270.184
10.927	1	11	47	356.004
10.928	1	15	48	327.149
10.935	1	25	55	280.436
10.936	1	7	56	251.479
10.937	1	23	57	265.895
10.938	1	2	58	337.287
10.943	1	14	63	257.842
10.944	1	12	64	269.804
10.945	1	27	65	213.632
10.946	1	10	66	187.339
10.949	1	17	69	291.732
10.95	1	22	70	268.06
11.201	1	30	1	392.636
11.202	1	3	2	278.966
11.203	1	21	3	302.244
11.204	1	1	4	302.28
11.215	1	19	15	208.254
11.216	1	6	16	315.4
11.217	1	29	17	282.598
11.218	1	24	18	259.36
11.226	1	9	26	327.151
11.227	1	28	27	269.025
11.228	1	18	28	229.206
11.229	1	13	29	267.904
11.238	1	8	38	470.616
11.239	1	4	39	372.264
11.24	1	16	40	225.263
11.241	1	26	41	189.954
11.245	1	20	45	306.495
11.246	1	5	46	271.589
11.247	1	11	47	354.412
11.248	1	15	48	329.553
11.255	1	25	55	283.292
11.256	1	7	56	254.02
11.257	1	23	57	268.609
11.258	1	2	58	343.437
11.263	1	14	63	255.283
11.264	1	12	64	270.035
11.265	1	27	65	206.45
11.266	1	10	66	189.645
11.269	1	17	69	295.299
11.27	1	22	70	268.052
11.521	1	30	1	390.378
11.522	1	3	2	276.198
11.523	1	21	3	301.791
11.524	1	1	4	304.742
11.535	1	19	15	206.022
11.536	1	6	16	318.108
11.537	1	29	17	289.521
11.538	1	24	18	257.306
11.546	1	9	26	334.434
11.547	1	28	27	270.43
11.548	1	18	28	228.507
11.549	1	13	29	270.49
11.558	1	8	38	469.503
11.559	1	4	39	373.922
11.56	1	16	40	229.191
11.561	1	26	41	186.322
11.565	1	20	45	307.488
11.566	1	5	46	272.879
11.567	1	11	47	353.639
11.568	1	15	48	332.869
11.575	1	25	55	278.948
11.576	1	7	56	251.601
11.577	1	23	57	266.051
11.578	1	2	58	343.334
11.583	1	14	63	254.342
11.584	1	12	64	272.172
11.585	1	27	65	209.234
11.586	1	10	66	190.487
11.589	1	17	69	290.392
11.59	1	22	70	266.041
11.841	1	30	1	380.339
11.842	1	3	2	281.308
11.843	1	21	3	311.062
11.844	1	1	4	307.873
11.855	1	19	15	211.705
11.856	1	6	16	309.55
11.857	1	29	17	289.269
11.858	1	24	18	255.955
11.866	1	9	26	334.706
11.867	1	28	27	270.853
11.868	1	18	28	225.084
11.869	1	13	29	268.094
11.878	1	8	38	479.172
11.879	1	4	39	376.981
11.88	1	16	40	227.894
11.881	1	26	41	184.833
11.885	1	20	45	315.044
11.886	1	5	46	271.284
11.887	1	11	47	343.344
11.888	1	15	48	330.914
11.895	1	25	55	283.354
11.896	1	7	56	248.792
11.897	1	23	57	267.471
11.898	1	2	58	342.39
11.903	1	14	63	254.117
11.904	1	12	64	264.465
11.905	1	27	65	210.614
11.906	1	10	66	190.029
11.909	1	17	69	292.644
11.91	1	22	70	266.358
12.161	1	30	1	372.567
12.162	1	3	2	273.555
12.163	1	21	3	309.983
12.164	1	1	4	302.037
12.175	1	19	15	209.703
12.176	1	6	16	312.981
12.177	1	29	17	287.169
12.178	1	24	18	251.429
12.186	1	9	26	339.253
12.187	1	28	27	274.484
12.188	1	18	28	227.889
12.189	1	13	29	272.466
12.198	1	8	38	463.492
12.199	1	4	39	375.891
12.2	1	16	40	228.813
12.201	1	26	41	185.141
12.205	1	20	45	314.633
12.206	1	5	46	272.444
12.207	1	11	47	348.929
12.208	1	15	48	329.176
12.215	1	25	55	282.442
12.216	1	7	56	249.612
12.217	1	23	57	266.63
12.218	1	2	58	339.548
12.223	1	14	63	257.576
12.224	1	12	64	262.263
12.225	1	27	65	211.934
12.226	1	10	66	193.182
12.229	1	17	69	293.995
12.23	1	22	70	262.076
12.481	1	30	1	366.001
12.482	1	3	2	278.629
12.483	1	21	3	303.126
12.484	1	1	4	309.55
12.495	1	19	15	210.432
12.496	1	6	16	311.816
12.497	1	29	17	292.16
12.498	1	24	18	248.681
12.506	1	9	26	340.152
12.507	1	28	27	274.365
12.508	1	18	28	226.792
12.509	1	13	29	271.938
12.518	1	8	38	466.744
12.519	1	4	39	367.56
12.52	1	16	40	232.72
12.521	1	26	41	182.009
12.525	1	20	45	314.098
12.526	1	5	46	274.11
12.527	1	11	47	346.388
12.528	1	15	48	319.761
12.535	1	25	55	291.543
12.536	1	7	56	250.823
12.537	1	23	57	267.575
12.538	1	2	58	332.798
12.543	1	14	63	259.263
12.544	1	12	64	258.446
12.545	1	27	65	211.821
12.546	1	10	66	194.335
12.549	1	17	69	291.226
12.55	1	22	70	260.289
12.801	1	30	1	366.41
12.802	1	3	2	274.959
12.803	1	21	3	304.663
12.804	1	1	4	315.399
12.815	1	19	15	207.709
12.816	1	6	16	317.397
12.817	1	29	17	297.668
12.818	1	24	18	244.735
12.826	1	9	26	336.203
12.827	1	28	27	273.693
12.828	1	18	28	226.976
12.829	1	13	29	267.502
12.838	1	8	38	460.57
12.839	1	4	39	364.107
12.84	1	16	40	234.694
12.841	1	26	41	186.129
12.845	1	20	45	315.33
12.846	1	5	46	276.439
12.847	1	11	47	349.947
12.848	1	15	48	321.495
12.855	1	25	55	290.863
12.856	1	7	56	253.417
12.857	1	23	57	266.068
12.858	1	2	58	334.681
12.863	1	14	63	262.19
12.864	1	12	64	249.408
12.865	1	27	65	210.342
12.866	1	10	66	193.629
12.869	1	17	69	289.345
12.87	1	22	70	261.321
13.121	1	30	1	367.908
13.122	1	3	2	282.148
13.123	1	21	3	304.743
13.124	1	1	4	307.469
13.135	1	19	15	201.89
13.136	1	6	16	321.615
13.137	1	29	17	304.662
13.138	1	24	18	242.268
13.146	1	9	26	329.053
13.147	1	28	27	274.903
13.148	1	18	28	224.308
13.149	1	13	29	267.582
13.158	1	8	38	467.592
13.159	1	4	39	360.662
13.16	1	16	40	230.402
13.161	1	26	41	182.349
13.165	1	20	45	318.269
13.166	1	5	46	277.755
13.167	1	11	47	350.919
13.168	1	15	48	327.098
13.175	1	25	55	290.635
13.176	1	7	56	253.936
13.177	1	23	57	259.165
13.178	1	2	58	335.878
13.183	1	14	63	265.241
13.184	1	12	64	247.888
13.185	1	27	65	207.107
13.186	1	10	66	195.004
13.189	1	17	69	288.183
13.19	1	22	70	258.716
13.441	1	30	1	370.554
13.442	1	3	2	280.463
13.443	1	21	3	306.127
13.444	1	1	4	307.891
13.455	1	19	15	198.917
13.456	1	6	16	323.03
13.457	1	29	17	300.499
13.458	1	24	18	239.119
13.466	1	9	26	325.642
13.467	1	28	27	276.92
13.468	1	18	28	221.473
13.469	1	13	29	268.151
13.478	1	8	38	466.518
13.479	1	4	39	362.746
13.48	1	16	40	229.911
13.481	1	26	41	181.238
13.485	1	20	45	319.821
13.486	1	5	46	281.442
13.487	1	11	47	349.451
13.488	1	15	48	336.517
13.495	1	25	55	290.794
13.496	1	7	56	249.619
13.497	1	23	57	260.148
13.498	1	2	58	334.62
13.503	1	14	63	266.978
13.504	1	12	64	247.719
13.505	1	27	65	206.401
13.506	1	10	66	192.195
13.509	1	17	69	283.651
13.51	1	22	70	261.082
13.761	1	30	1	372.04
13.762	1	3	2	281.48
13.763	1	21	3	309.249
13.764	1	1	4	311.134
13.775	1	19	15	198.421
13.776	1	6	16	321.914
13.777	1	29	17	295.95
13.778	1	24	18	239.019
13.786	1	9	26	326.334
13.787	1	28	27	271.514
13.788	1	18	28	222.643
13.789	1	13	29	267.581
13.798	1	8	38	466.069
13.799	1	4	39	360.06
13.8	1	16	40	224.848
13.801	1	26	41	181.642
13.805	1	20	45	320.752
13.806	1	5	46	282.86
13.807	1	11	47	349.581
13.808	1	15	48	331.973
13.815	1	25	55	287.937
13.816	1	7	56	242.94
13.817	1	23	57	260.57
13.818	1	2	58	337.453
13.823	1	14	63	265.385
13.824	1	12	64	249.041
13.825	1	27	65	211.082
13.826	1	10	66	190.546
13.829	1	17	69	281.099
13.83	1	22	70	261.341
14.081	1	30	1	361.574
14.082	1	3	2	279.92
14.083	1	21	3	312.501
14.084	1	1	4	308.443
14.095	1	19	15	198.01
14.096	1	6	16	321.603
14.097	1	29	17	295.154
14.098	1	24	18	237.334
14.106	1	9	26	321.254
14.107	1	28	27	276.258
14.108	1	18	28	218.08
14.109	1	13	29	266.779
14.118	1	8	38	472.666
14.119	1	4	39	366.109
14.12	1	16	40	228.808
14.121	1	26	41	184.485
14.125	1	20	45	322.798
14.126	1	5	46	288.212
14.127	1	11	47	346.639
14.128	1	15	48	335.003
14.135	1	25	55	286.778
14.136	1	7	56	249.879
14.137	1	23	57	254.519
14.138	1	2	58	330.062
14.143	1	14	63	264.011
14.144	1	12	64	250.664
14.145	1	27	65	211.423
14.146	1	10	66	189.024
14.149	1	17	69	278.201
14.15	1	22	70	259.684
14.401	1	30	1	363.583
14.402	1	3	2	283.88
14.403	1	21	3	309.606
14.404	1	1	4	300.148
14.415	1	19	15	199.332
14.416	1	6	16	326.669
14.417	1	29	17	292.261
14.418	1	24	18	236.025
14.426	1	9	26	320.496
14.427	1	28	27	283.281
14.428	1	18	28	219.086
14.429	1	13	29	259.233
14.438	1	8	38	468.064
14.439	1	4	39	365.585
14.44	1	16	40	226.852
14.441	1	26	41	182.536
14.445	1	20	45	330.91
14.446	1	5	46	284.37
14.447	1	11	47	343.86
14.448	1	15	48	334.543
14.455	1	25	55	286.226
14.456	1	7	56	247.816
14.457	1	23	57	251.998
14.458	1	2	58	333.269
14.463	1	14	63	269.447
14.464	1	12	64	247.927
14.465	1	27	65	210.593
14.466	1	10	66	189.125
14.469	1	17	69	275.156
14.47	1	22	70	261.399
14.721	1	30	1	365.813
14.722	1	3	2	285.39
14.723	1	21	3	309.898
14.724	1	1	4	302.634
14.735	1	19	15	199.954
14.736	1	6	16	320.54
14.737	1	29	17	293.391
14.738	1	24	18	237.694
14.746	1	9	26	319.45
14.747	1	28	27	283.667
14.748	1	18	28	214.336
14.749	1	13	29	263.424
14.758	1	8	38	473.935
14.759	1	4	39	367.067
14.76	1	16	40	228.363
14.761	1	26	41	184.289
14.765	1	20	45	327.312
14.766	1	5	46	283.578
14.767	1	11	47	341.922
14.768	1	15	48	335.633
14.775	1	25	55	290.434
14.776	1	7	56	244.963
14.777	1	23	57	253.887
14.778	1	2	58	332.482
14.783	1	14	63	268.182
14.784	1	12	64	244.977
14.785	1	27	65	211.037
14.786	1	10	66	185.132
14.789	1	17	69	281.91
14.79	1	22	70	258.426
15.041	1	30	1	355.683
15.042	1	3	2	283.705
15.043	1	21	3	318.915
15.044	1	1	4	306.837
15.055	1	19	15	200.825
15.056	1	6	16	313.778
15.057	1	29	17	288.997
15.058	1	24	18	238.873
15.066	1	9	26	324.757
15.067	1	28	27	282.668
15.068	1	18	28	215.623
15.069	1	13	29	257.618
15.078	1	8	38	465.034
15.079	1	4	39	372.068
15.08	1	16	40	223.491
15.081	1	26	41	185.405
15.085	1	20	45	332.194
15.086	1	5	46	289.488
15.087	1	11	47	339.065
15.088	1	15	48	334.715
15.095	1	25	55	291.548
15.096	1	7	56	242.883
15.097	1	23	57	253.785
15.098	1	2	58	335.258
15.103	1	14	63	262.065
15.104	1	12	64	240.214
15.105	1	27	65	210.092
15.106	1	10	66	185.996
15.109	1	17	69	286.054
15.11	1	22	70	258.564
15.361	1	30	1	355.542
15.362	1	3	2	282.42
15.363	1	21	3	324.317
15.364	1	1	4	310.718
15.375	1	19	15	199.477
15.376	1	6	16	317.572
15.377	1	29	17	297.848
15.378	1	24	18	236
15.386	1	9	26	326.43
15.387	1	28	27	290.213
15.388	1	18	28	218.596
15.389	1	13	29	260.538
15.398	1	8	38	461.299
15.399	1	4	39	368.897
15.4	1	16	40	222.776
15.401	1	26	41	184.123
15.405	1	20	45	330.207
15.406	1	5	46	283.484
15.407	1	11	47	335.562
15.408	1	15	48	335.712
15.415	1	25	55	291.341
15.416	1	7	56	242.531
15.417	1	23	57	256.064
15.418	1	2	58	336.166
15.423	1	14	63	259.002
15.424	1	12	64	235.25
15.425	1	27	65	212.007
15.426	1	10	66	187.573
15.429	1	17	69	287.042
15.43	1	22	70	256.572
15.681	1	30	1	357.191
15.682	1	3	2	278.918
15.683	1	21	3	329.182
15.684	1	1	4	314.536
15.695	1	19	15	204.393
15.696	1	6	16	314.488
15.697	1	29	17	304.356
15.698	1	24	18	237.327
15.706	1	9	26	319.578
15.707	1	28	27	291.055
15.708	1	18	28	220.075
15.709	1	13	29	260.859
15.718	1	8	38	468.011
15.719	1	4	39	372.905
15.72	1	16	40	219.8
15.721	1	26	41	183.424
15.725	1	20	45	330.859
15.726	1	5	46	283.533
15.727	1	11	47	329.466
15.728	1	15	48	333.585
15.735	1	25	55	286.6
15.736	1	7	56	245.522
15.737	1	23	57	255.083
15.738	1	2	58	339.657
15.743	1	14	63	260.729
15.744	1	12	64	237.676
15.745	1	27	65	210.764
15.746	1	10	66	183.918
15.749	1	17	69	283.809
15.75	1	22	70	254.441
16.001	1	30	1	349.381
16.002	1	3	2	275.879
16.003	1	21	3	338.952
16.004	1	1	4	312.073
16.015	1	19	15	207.85
16.016	1	6	16	313.878
16.017	1	29	17	306.607
16.018	1	24	18	240.829
16.026	1	9	26	319.782
16.027	1	28	27	287.997
16.028	1	18	28	217.38
16.029	1	13	29	265.099
16.038	1	8	38	456.98
16.039	1	4	39	375.607
16.04	1	16	40	222.631
16.041	1	26	41	182.554
16.045	1	20	45	332.164
16.046	1	5	46	286.81
16.047	1	11	47	338.667
16.048	1	15	48	347.395
16.055	1	25	55	285.418
16.056	1	7	56	249.794
16.057	1	23	57	253.976
16.058	1	2	58	343.692
16.063	1	14	63	266.873
16.064	1	12	64	238.275
16.065	1	27	65	208.05
16.066	1	10	66	187.088
16.069	1	17	69	283.834
16.07	1	22	70	253.87
16.321	1	30	1	352.426
16.322	1	3	2	282.364
16.323	1	21	3	342.821
16.324	1	1	4	314.764
16.335	1	19	15	210.532
16.336	1	6	16	310.613
16.337	1	29	17	303.834
16.338	1	24	18	240.929
16.346	1	9	26	314.798
16.347	1	28	27	280.895
16.348	1	18	28	220.763
16.349	1	13	29	261.35
16.358	1	8	38	453.344
16.359	1	4	39	371.401
16.36	1	16	40	219.435
16.361	1	26	41	183.232
16.365	1	20	45	332.092
16.366	1	5	46	291.523
16.367	1	11	47	345.097
16.368	1	15	48	340.094
16.375	1	25	55	282.612
16.376	1	7	56	243.56
16.377	1	23	57	255.023
16.378	1	2	58	337.12
16.383	1	14	63	260.679
16.384	1	12	64	236.315
16.385	1	27	65	208.246
16.386	1	10	66	186.579
16.389	1	17	69	293.465
16.39	1	22	70	251.813
16.641	1	30	1	365.072
16.642	1	3	2	287.676
16.643	1	21	3	345.738
16.644	1	1	4	312.096
16.655	1	19	15	210.223
16.656	1	6	16	307.26
16.657	1	29	17	310.146
16.658	1	24	18	237.051
16.666	1	9	26	312.213
16.667	1	28	27	273.73
16.668	1	18	28	227.104
16.669	1	13	29	258.002
16.678	1	8	38	442.378
16.679	1	4	39	369.287
16.68	1	16	40	223.974
16.681	1	26	41	182.389
16.685	1	20	45	331.714
16.686	1	5	46	300.561
16.687	1	11	47	352.641
16.688	1	15	48	348.753
16.695	1	25	55	287.23
16.696	1	7	56	245.013
16.697	1	23	57	253.778
16.698	1	2	58	342.205
16.703	1	14	63	260.99
16.704	1	12	64	234.731
16.705	1	27	65	212.604
16.706	1	10	66	189.703
16.709	1	17	69	293.423
16.71	1	22	70	253.09
16.961	1	30	1	372.67
16.962	1	3	2	291.392
16.963	1	21	3	334.586
16.964	1	1	4	300.778
16.975	1	19	15	212.265
16.976	1	6	16	306.13
16.977	1	29	17	307.85
16.978	1	24	18	236.324
16.986	1	9	26	303.232
16.987	1	28	27	271.216
16.988	1	18	28	223.958
16.989	1	13	29	259.337
16.998	1	8	38	439.096
16.999	1	4	39	369.267
17	1	16	40	226.019
17.001	1	26	41	182.474
17.005	1	20	45	328.733
17.006	1	5	46	300.244
17.007	1	11	47	358.905
17.008	1	15	48	354.403
17.015	1	25	55	285.762
17.016	1	7	56	242.428
17.017	1	23	57	256.323
17.018	1	2	58	341.024
17.023	1	14	63	262.932
17.024	1	12	64	234.656
17.025	1	27	65	216.839
17.026	1	10	66	192.063
17.029	1	17	69	291.591
17.03	1	22	70	251.467
17.281	1	30	1	377.187
17.282	1	3	2	286.339
17.283	1	21	3	330.938
17.284	1	1	4	293.971
17.295	1	19	15	208.458
17.296	1	6	16	307.684
17.297	1	29	17	300.494
17.298	1	24	18	236.484
17.306	1	9	26	300.653
17.307	1	28	27	269.849
17.308	1	18	28	224.457
17.309	1	13	29	260.879
17.318	1	8	38	448.432
17.319	1	4	39	376.091
17.32	1	16	40	223.251
17.321	1	26	41	182.993
17.325	1	20	45	318.064
17.326	1	5	46	291.745
17.327	1	11	47	362.373
17.328	1	15	48	355.793
17.335	1	25	55	282.461
17.336	1	7	56	238.424
17.337	1	23	57	247.869
17.338	1	2	58	344.281
17.343	1	14	63	263.981
17.344	1	12	64	236.693
17.345	1	27	65	219.361
17.346	1	10	66	192.806
17.349	1	17	69	293.324
17.35	1	22	70	255.294
17.601	1	30	1	374.682
17.602	1	3	2	285.887
17.603	1	21	3	330.852
17.604	1	1	4	296.603
17.615	1	19	15	206.391
17.616	1	6	16	310.253
17.617	1	29	17	305.465
17.618	1	24	18	233.108
17.626	1	9	26	297.788
17.627	1	28	27	268.126
17.628	1	18	28	227.943
17.629	1	13	29	263.619
17.638	1	8	38	447.495
17.639	1	4	39	376.238
17.64	1	16	40	226.625
17.641	1	26	41	184.702
17.645	1	20	45	318.168
17.646	1	5	46	291.834
17.647	1	11	47	349.377
17.648	1	15	48	359.298
17.655	1	25	55	280.799
17.656	1	7	56	241.238
17.657	1	23	57	243.316
17.658	1	2	58	342.94
17.663	1	14	63	263.79
17.664	1	12	64	237.482
17.665	1	27	65	219.009
17.666	1	10	66	193.044
17.669	1	17	69	294.427
17.67	1	22	70	247.009
17.921	1	30	1	375.631
17.922	1	3	2	292.47
17.923	1	21	3	331.176
17.924	1	1	4	297.131
17.935	1	19	15	207.957
17.936	1	6	16	309.98
17.937	1	29	17	304.387
17.938	1	24	18	232.769
17.946	1	9	26	295.914
17.947	1	28	27	272.683
17.948	1	18	28	230.739
17.949	1	13	29	264.088
17.958	1	8	38	444.926
17.959	1	4	39	388.488
17.96	1	16	40	228.188
17.961	1	26	41	187.113
17.965	1	20	45	311.143
17.966	1	5	46	298.458
17.967	1	11	47	349.178
17.968	1	15	48	361.159
17.975	1	25	55	280.816
17.976	1	7	56	243.153
17.977	1	23	57	245.266
17.978	1	2	58	339.735
17.983	1	14	63	265.424
17.984	1	12	64	232.615
17.985	1	27	65	218.014
17.986	1	10	66	192.545
17.989	1	17	69	290.997
17.99	1	22	70	242.209
18.241	1	30	1	391.217
18.242	1	3	2	295.812
18.243	1	21	3	330.311
18.244	1	1	4	299.088
18.255	1	19	15	209.575
18.256	1	6	16	313.054
18.257	1	29	17	304.304
18.258	1	24	18	232.806
18.266	1	9	26	291.287
18.267	1	28	27	279.338
18.268	1	18	28	231.652
18.269	1	13	29	265.397
18.278	1	8	38	437.796
18.279	1	4	39	384.058
18.28	1	16	40	229.073
18.281	1	26	41	184.192
18.285	1	20	45	308.669
18.286	1	5	46	307.788
18.287	1	11	47	345.936
18.288	1	15	48	361.129
18.295	1	25	55	282.865
18.296	1	7	56	246.212
18.297	1	23	57	247.34
18.298	1	2	58	333.853
18.303	1	14	63	264.001
18.304	1	12	64	232.947
18.305	1	27	65	220.884
18.306	1	10	66	194.578
18.309	1	17	69	288.653
18.31	1	22	70	241.415
18.561	1	30	1	396.433
18.562	1	3	2	292.843
18.563	1	21	3	332.503
18.564	1	1	4	304.967
18.575	1	19	15	212.755
18.576	1	6	16	313.238
18.577	1	29	17	305.309
18.578	1	24	18	226.044
18.586	1	9	26	294.132
18.587	1	28	27	276.87
18.588	1	18	28	232.158
18.589	1	13	29	261.767
18.598	1	8	38	428.696
18.599	1	4	39	394.788
18.6	1	16	40	229.681
18.601	1	26	41	181.032
18.605	1	20	45	297.809
18.606	1	5	46	309.44
18.607	1	11	47	349.653
18.608	1	15	48	363.18
18.615	1	25	55	287.118
18.616	1	7	56	244.732
18.617	1	23	57	249.212
18.618	1	2	58	328.666
18.623	1	14	63	265.981
18.624	1	12	64	232.225
18.625	1	27	65	222
18.626	1	10	66	195.993
18.629	1	17	69	286.003
18.63	1	22	70	238.956
18.881	1	30	1	387.633
18.882	1	3	2	295.839
18.883	1	21	3	323.492
18.884	1	1	4	307.906
18.895	1	19	15	213.124
18.896	1	6	16	317.04
18.897	1	29	17	305.05
18.898	1	24	18	224.336
18.906	1	9	26	291.558
18.907	1	28	27	285.127
18.908	1	18	28	227
18.909	1	13	29	255.444
18.918	1	8	38	423.233
18.919	1	4	39	408.651
18.92	1	16	40	231.664
18.921	1	26	41	182.038
18.925	1	20	45	296.846
18.926	1	5	46	308.628
18.927	1	11	47	348.168
18.928	1	15	48	358.383
18.935	1	25	55	291.757
18.936	1	7	56	251.127
18.937	1	23	57	246.892
18.938	1	2	58	326.348
18.943	1	14	63	261.602
18.944	1	12	64	227.753
18.945	1	27	65	223.788
18.946	1	10	66	192.637
18.949	1	17	69	293.119
18.95	1	22	70	238.529
19.201	1	30	1	377.686
19.202	1	3	2	296.169
19.203	1	21	3	322.86
19.204	1	1	4	305.316
19.215	1	19	15	211.411
19.216	1	6	16	305.787
19.217	1	29	17	304.393
19.218	1	24	18	227.324
19.226	1	9	26	289.936
19.227	1	28	27	285.609
19.228	1	18	28	227.21
19.229	1	13	29	258.878
19.238	1	8	38	408.827
19.239	1	4	39	409.306
19.24	1	16	40	228.187
19.241	1	26	41	181.125
19.245	1	20	45	304.194
19.246	1	5	46	310.082
19.247	1	11	47	337.825
19.248	1	15	48	371.482
19.255	1	25	55	292.136
19.256	1	7	56	256.885
19.257	1	23	57	239.158
19.258	1	2	58	325.722
19.263	1	14	63	255.763
19.264	1	12	64	228.947
19.265	1	27	65	225.939
19.266	1	10	66	193.653
19.269	1	17	69	292.738
19.27	1	22	70	241.934
