====>   ManagerPacketWlanDl 
		---> Média de pacotes em DL: 429
====>   ManagerPacketWlanDl 
		---> Média de pacotes em DL: 429
====>   ManagerPacketWlanDl 
		---> Média de pacotes em DL: 429
====>   ManagerPacketWlanDl 
		---> Média de pacotes em DL: 429
====>   ManagerPacketWlanDl 
		---> Média de pacotes em DL: 429
====>   ManagerPacketWlanDl 
		---> Média de pacotes em DL: 427.989
