====>   ManagerPacketWlanUl 
		---> Média de pacotes em UL: 429
====>   ManagerPacketWlanUl 
		---> Média de pacotes em UL: 429
====>   ManagerPacketWlanUl 
		---> Média de pacotes em UL: 429
====>   ManagerPacketWlanUl 
		---> Média de pacotes em UL: 429
====>   ManagerPacketWlanUl 
		---> Média de pacotes em UL: 429
====>   ManagerPacketWlanUl 
		---> Média de pacotes em UL: 426.777
